{
  "project_info": {
    "project_number": "441230930617",
    "firebase_url": "https://fir-isnaratna.firebaseio.com",
    "project_id": "firebaseisnaratna",
    "storage_bucket": "firebaseisnaratna.appspot.com"
  },
  "client": [
    {
      "client_info": {
        "mobilesdk_app_id": "1:441230930617:android:ee887ea4f4846ee1dbe168",
        "android_client_info": {
          "package_name": "ratna.dwi.app0e"
        }
      },
      "oauth_client": [
        {
          "client_id": "441230930617-l7ajg35vsuvpus9dkkumv6cmfou76und.apps.googleusercontent.com",
          "client_type": 3
        }
      ],
      "api_key": [
        {
          "current_key": "AIzaSyBtsGn50xEUath07A_5tLme1Sn7KXoZKTs"
        }
      ],
      "services": {
        "appinvite_service": {
          "other_platform_oauth_client": [
            {
              "client_id": "441230930617-l7ajg35vsuvpus9dkkumv6cmfou76und.apps.googleusercontent.com",
              "client_type": 3
            }
          ]
        }
      }
    },
    {
      "client_info": {
        "mobilesdk_app_id": "1:441230930617:android:27230a9ee54ccbd0dbe168",
        "android_client_info": {
          "package_name": "ratna.dwi.appfirebase"
        }
      },
      "oauth_client": [
        {
          "client_id": "441230930617-l7ajg35vsuvpus9dkkumv6cmfou76und.apps.googleusercontent.com",
          "client_type": 3
        }
      ],
      "api_key": [
        {
          "current_key": "AIzaSyBtsGn50xEUath07A_5tLme1Sn7KXoZKTs"
        }
      ],
      "services": {
        "appinvite_service": {
          "other_platform_oauth_client": [
            {
              "client_id": "441230930617-l7ajg35vsuvpus9dkkumv6cmfou76und.apps.googleusercontent.com",
              "client_type": 3
            }
          ]
        }
      }
    }
  ],
  "configuration_version": "1"
}